32bit_ALU/32bit_ALU.sim/sim_1/behav/xsim/simulate.log
Time resolution is 1 ps
F=0000: S=11111111111111111111111111111111 (Expected: 32'b1)
F=0001: S=        25 (Expected: 25)
F=0010: S=00000000000000000000010101010000 (Expected: 32'b01010101)
F=0011: S=00000000000000000000000000000000 (Expected: 32'b00001111)
F=0100: S=00000000000000000000000000001000 (Expected: 32'b1000)
F=0101: S=00000000000000000000000000001110 (Expected: 32'b1110)
F=0110: S=11111111111111111111111111110011 (Expected: 32'b0011)
F=0111: S=00000000000000000000000000000110 (Expected: 32'b0110)
F=1000: S=00000000000000000000000000000000 (Expected: 32'b1 if a < b)
F=1001: S=00000000000000000000000000000001 (Expected: 32'b1 if a < b)
F=1010: S=        12 (Expected: 12)
F=1011: S=         4 (Expected: 4)
F=1100: S=        10 (Expected: 10)
F=1111: S=00000000000000000000000000000000 (Undefined behavior)
Simulation finished.
$finish called at time : 280 ns : File "E:/Learing Doc/github/alu_homework2/32bit_ALU/32bit_ALU.srcs/sim_1/new/testbench_ALU_32bit.v" Line 152
